<?xml version="1.0" encoding="UTF-8"?>
<svg xmlns="http://www.w3.org/2000/svg" xmlns:xlink="http://www.w3.org/1999/xlink" width="75pt" height="33pt" viewBox="0 0 75 33" version="1.1">
<defs>
<filter id="alpha" filterUnits="objectBoundingBox" x="0%" y="0%" width="100%" height="100%">
  <feColorMatrix type="matrix" in="SourceGraphic" values="0 0 0 0 1 0 0 0 0 1 0 0 0 0 1 0 0 0 1 0"/>
</filter>
<image id="image9" width="75" height="33" xlink:href="data:image/png;base64,iVBORw0KGgoAAAANSUhEUgAAAEsAAAAhCAYAAACRIVbWAAAABmJLR0QA/wD/AP+gvaeTAAAAZElEQVRoge3QsQmEABREwe81oDVYzrVtTeZ2ILxEUGbiDZa3DDMzc6zr9j/P/W7ze+rMF4gViBWIFYgViBWIFYgViBWIFYgViBWIFYgViBWIFYgViBWIFYgViBWIFYgFAABvcgF9SgN3pbm/PgAAAABJRU5ErkJggg=="/>
<mask id="mask0">
  <g filter="url(#alpha)">
<use xlink:href="#image9"/>
  </g>
</mask>
<clipPath id="clip1">
  <rect width="75" height="33"/>
</clipPath>
<g id="surface11" clip-path="url(#clip1)">
<path style=" stroke:none;fill-rule:nonzero;fill:#0D1918;fill-opacity:1;" d="M 75 33.332031 L 66.667969 33.332031 L 66.667969 0 L 75 0 Z M 75 33.332031 "/>
</g>
<image id="image17" width="75" height="33" xlink:href="data:image/png;base64,iVBORw0KGgoAAAANSUhEUgAAAEsAAAAhCAYAAACRIVbWAAAABmJLR0QA/wD/AP+gvaeTAAAAdUlEQVRoge3QsQ2CAABEUZGC2hFciwWcyQVcyxGsKUhYAIvfiCTvtddc/nD5A69puj/W9fZtf47jZ16W9y8/7bkefeBMxArECsQKxArECsQKxArECsQKxArECsQKxArECsQKxArECsQKxArECsQKxAIAgDPZAFX+CDDsK9FnAAAAAElFTkSuQmCC"/>
<mask id="mask1">
  <g filter="url(#alpha)">
<use xlink:href="#image17"/>
  </g>
</mask>
<clipPath id="clip2">
  <rect width="75" height="33"/>
</clipPath>
<g id="surface19" clip-path="url(#clip2)">
<path style=" stroke:none;fill-rule:nonzero;fill:#0D1918;fill-opacity:1;" d="M 41.667969 33.332031 L 33.332031 33.332031 L 33.332031 0 L 41.667969 0 Z M 41.667969 33.332031 "/>
</g>
<image id="image25" width="75" height="33" xlink:href="data:image/png;base64,iVBORw0KGgoAAAANSUhEUgAAAEsAAAAhCAYAAACRIVbWAAAABmJLR0QA/wD/AP+gvaeTAAAAaklEQVRoge3QsQ3CQAAEQUDOXm7GOW1TDjX4O6ADSxtZL2biC0773LfteFz4jPF9z3lebf7F6+4DKxErECsQKxArECsQKxArECsQKxArECsQKxArECsQKxArECsQKxArECsQKxALAABW8gMYpgUwh9byuwAAAABJRU5ErkJggg=="/>
<mask id="mask2">
  <g filter="url(#alpha)">
<use xlink:href="#image25"/>
  </g>
</mask>
<clipPath id="clip3">
  <rect width="75" height="33"/>
</clipPath>
<g id="surface27" clip-path="url(#clip3)">
<path style=" stroke:none;fill-rule:nonzero;fill:#0D1918;fill-opacity:1;" d="M 8.332031 33.332031 L 0 33.332031 L 0 0 L 8.332031 0 Z M 8.332031 33.332031 "/>
</g>
</defs>
<g id="surface1">
<use xlink:href="#surface11" mask="url(#mask0)"/>
<use xlink:href="#surface19" mask="url(#mask1)"/>
<use xlink:href="#surface27" mask="url(#mask2)"/>
</g>
</svg>
