/* XPM */
static char * title_5_active_xpm[] = {
"2 26 3 1",
" 	c None",
".	c #925F38",
"+	c #0D1918",
"..",
"++",
"++",
"++",
"++",
"++",
"++",
"++",
"++",
"++",
"++",
"++",
"++",
"++",
"++",
"++",
"++",
"++",
"++",
"++",
"++",
"++",
"++",
"++",
"++",
"++"};
